…
# Selecting columns to work with (net_sales)
net_sales_year_month <- retail_sales2 %>%
    select(`Net Sales`, Year, Month) %>%
    rename(net_sales = `Net Sales`)

# BEFORE
net_sales_year_month %>%
        mutate(
            Day = 1,
            month_year = paste(Year, Month, Day),
            month_year = month_year %>% ymd(),
            month = month(month_year)
        )

## # A tibble: 36 x 6
##    net_sales  Year Month       Day month_year month
##        <dbl> <dbl> <chr>     <dbl> <date>     <dbl>
##  1     8284.  2017 January       1 2017-01-01     1
##  2     6388.  2017 February      1 2017-02-01     2
##  3     4589.  2017 March         1 2017-03-01     3
##  4     8533.  2017 April         1 2017-04-01     4
##  5     6237.  2017 May           1 2017-05-01     5
##  6     9370.  2017 June          1 2017-06-01     6
##  7     5959.  2017 July          1 2017-07-01     7
##  8     7740.  2017 August        1 2017-08-01     8
##  9     6732.  2017 September     1 2017-09-01     9
## 10     5327   2017 October       1 2017-10-01    10
## # … with 26 more rows
…
# Function takes in dataframe to add columns for further analysis
create_ymd_function <- function(data) {
    data %>%
        mutate(
            Day = 1,
            month_year = paste(Year, Month, Day),
            month_year = month_year %>% ymd(),
            month = month(month_year)
        )
}

create_ymd_function(net_sales_year_month)

## # A tibble: 36 x 6
##    net_sales  Year Month       Day month_year month
##        <dbl> <dbl> <chr>     <dbl> <date>     <dbl>
##  1     8284.  2017 January       1 2017-01-01     1
##  2     6388.  2017 February      1 2017-02-01     2
##  3     4589.  2017 March         1 2017-03-01     3
##  4     8533.  2017 April         1 2017-04-01     4
##  5     6237.  2017 May           1 2017-05-01     5
##  6     9370.  2017 June          1 2017-06-01     6
##  7     5959.  2017 July          1 2017-07-01     7
##  8     7740.  2017 August        1 2017-08-01     8
##  9     6732.  2017 September     1 2017-09-01     9
## 10     5327   2017 October       1 2017-10-01    10
## # … with 26 more rows
…
    return(bpc_data)
}

create_bpc_columns_general(net_sales_year_month_2, net_sales)

## # A tibble: 36 x 13
##    net_sales  Year Month   Day month_year month avg_orders moving_range
##        <dbl> <dbl> <chr> <dbl> <date>     <dbl>      <dbl>        <dbl>
##  1     8284.  2017 Janu…     1 2017-01-01     1      9058.           0 
##  2     6388.  2017 Febr…     1 2017-02-01     2      9058.        1896.
##  3     4589.  2017 March     1 2017-03-01     3      9058.        1798.
##  4     8533.  2017 April     1 2017-04-01     4      9058.        3944.
##  5     6237.  2017 May       1 2017-05-01     5      9058.        2295.
##  6     9370.  2017 June      1 2017-06-01     6      9058.        3132.
##  7     5959.  2017 July      1 2017-07-01     7      9058.        3410.
##  8     7740.  2017 Augu…     1 2017-08-01     8      9058.        1781.
##  9     6732.  2017 Sept…     1 2017-09-01     9      9058.        1008.
## 10     5327   2017 Octo…     1 2017-10-01    10      9058.        1405.
## # … with 26 more rows, and 5 more variables: avg_moving_range <dbl>,
## #   lnpl <dbl>, lower_25 <dbl>, upper_25 <dbl>, unpl <dbl>
…
